\relax 
\citation{AlFaresM2008,GuoC2008,GuoC2009,Zhengk2016,BhuyanLN1984,XuM2019,NasirianS2019,XieP2019}
\citation{AlFaresM2008,LeisersonCE1985,MisraS2019}
\citation{GuoC2008,LvM2018}
\citation{GuoC2009}
\@writefile{toc}{\contentsline {section}{\numberline {1}Abstract}{1}}
\@writefile{toc}{\contentsline {section}{\numberline {2}Introduction}{1}}
\citation{wang2018bcdc}
\citation{GuoC2008}
\citation{EfeK1992,DBLPEfe,Chang2000Edge,GuoJ2019,WangS2018,ChenHC20}
\citation{wang2018bcdc}
\@writefile{toc}{\contentsline {section}{\numberline {3}Physical and Logical Structure of BCDC}{2}}
\newlabel{Defi-BCDCn}{{1}{2}}
\citation{wang2018bcdc}
\citation{GuoC2008}
\citation{AlFaresM2008}
\@writefile{lof}{\contentsline {figure}{\numberline {1}{\ignorespaces (a)The original graph of 3-dimensional BCDC $A_3$, (b)The logical graph of 3-dimensional BCDC $B_3$}}{3}}
\newlabel{original-logical-bcdc3}{{1}{3}}
\@writefile{toc}{\contentsline {section}{\numberline {4}Experiments and Evaluation}{3}}
\@writefile{toc}{\contentsline {subsection}{\numberline {4.1}Communication performance of $A_3$, DCell$_{1,3}$, and Fat-Tree}{3}}
\citation{wang2018bcdc}
\citation{GuoC2008}
\citation{AlFaresM2008}
\@writefile{toc}{\contentsline {subsection}{\numberline {4.2}Fault Tolerance of $A_3$, DCell$_{1,3}$, and Fat-Tree}{4}}
\newlabel{Fig.sub.1}{{2(a)}{4}}
\newlabel{sub@Fig.sub.1}{{(a)}{4}}
\newlabel{Fig.sub.2}{{2(b)}{4}}
\newlabel{sub@Fig.sub.2}{{(b)}{4}}
\@writefile{lof}{\contentsline {figure}{\numberline {2}{\ignorespaces The total transmission time and average CPU usage rate of $A_3$, DCell$_{1,3}$, and Fat-Tree in data communication}}{4}}
\@writefile{lof}{\contentsline {subfigure}{\numberline{(a)}{\ignorespaces {The total transmission time}}}{4}}
\@writefile{lof}{\contentsline {subfigure}{\numberline{(b)}{\ignorespaces {The average CPU usage rate}}}{4}}
\newlabel{broadcast}{{2}{4}}
\citation{WangDisjointPath}
\citation{WangX2016}
\@writefile{toc}{\contentsline {subsection}{\numberline {4.3}Node-Disjoint Paths of $A_3$ and DCell$_{1,3}$}{5}}
\newlabel{Fig.subft.1}{{3(a)}{5}}
\newlabel{sub@Fig.subft.1}{{(a)}{5}}
\newlabel{Fig.subft.2}{{3(b)}{5}}
\newlabel{sub@Fig.subft.2}{{(b)}{5}}
\@writefile{lof}{\contentsline {figure}{\numberline {3}{\ignorespaces The data transfer rate per second and average CPU usage rate of $A_3$, DCell$_{1,3}$, and Fat-Tree in fault tolerance}}{5}}
\@writefile{lof}{\contentsline {subfigure}{\numberline{(a)}{\ignorespaces {The data transfer rate per second}}}{5}}
\@writefile{lof}{\contentsline {subfigure}{\numberline{(b)}{\ignorespaces {The average CPU usage rate}}}{5}}
\newlabel{faultTolerance}{{3}{5}}
\bibcite{Chang2000Edge}{1}
\bibcite{GuoJ2019}{2}
\bibcite{WangS2018}{3}
\bibcite{DBLPEfe}{4}
\bibcite{ChenHC20}{5}
\bibcite{EfeK1992}{6}
\bibcite{AlFaresM2008}{7}
\@writefile{lot}{\contentsline {table}{\numberline {1}{\ignorespaces The transmission time and the average CPU usage rate of node-disjoint paths in $A_3$ and DCell$_{1,3}$}}{6}}
\newlabel{node-disjoint paths}{{1}{6}}
\@writefile{toc}{\contentsline {section}{\numberline {5}Conclusion}{6}}
\bibcite{GuoC2009}{8}
\bibcite{GuoC2008}{9}
\bibcite{Zhengk2016}{10}
\bibcite{BhuyanLN1984}{11}
\bibcite{XuM2019}{12}
\bibcite{NasirianS2019}{13}
\bibcite{XieP2019}{14}
\bibcite{LvM2018}{15}
\bibcite{MisraS2019}{16}
\bibcite{LeisersonCE1985}{17}
\bibcite{wang2018bcdc}{18}
\bibcite{WangDisjointPath}{19}
\bibcite{WangX2016}{20}
